{
    "orgName": "Hacking the Salesforce Console",
    "description": "Extending and Automating Lightning Console Apps",
    "edition": "Developer",
    "hasSampleData": "true",
    "features": ["LightningServiceConsole", "LightningSalesConsole"],
    "orgPreferences": {
        "enabled": ["S1DesktopEnabled"]
    }
}